{
    "id": "abomination-vaults-remade-maps-master",
    "title": "Abomination Vaults maps remake",
    "description": "<p>My collection of maps for Paizo Publishing's Pathfinder Second Edition ABOMINATION VAULTS Adventure Path.</p>",
    "version": "2.3.1",
    "minimumCoreVersion": "0.8.0",
    "compatibility": {
        "minimum": "11",
        "verified": "11"
    },
    "packs": [{
        "name": "av-remake-maps-book-1-by-narchy",
        "label": "AV maps remake - Book 1 by Narchy",
        "path": "/packs/av-remake-maps-book-1-by-narchy.db",
        "type": "Scene"
    }, {
        "name": "av-remake-maps-book-2-by-narchy",
        "label": "AV maps remake - Book 2 by Narchy",
        "path": "/packs/av-remake-maps-book-2-by-narchy.db",
        "type": "Scene"
    }, {
        "name": "av-remake-maps-book-3-by-narchy",
        "label": "AV maps remake - Book 3 by Narchy",
        "path": "/packs/av-remake-maps-book-3-by-narchy.db",
        "type": "Scene"
    }],
    "url": "https://gitlab.com/narchy-maps/abomination-vaults-remade-maps",
    "manifest": "https://gitlab.com/narchy-maps/abomination-vaults-remade-maps/-/raw/master/module.json",
    "download": "https://gitlab.com/narchy-maps/abomination-vaults-remade-maps/-/archive/master/abomination-vaults-remade-maps.zip"
}
